{
    "Database": {
        "host": "localhost",
        "user": "root",
        "password": "5c7b17e0fda0e19423b8e92903ae4e942ea49c7a64b4537c",
        "database": "helpdesk_mendawai",
        "port": "3306"
    },
    "Log": {
        "Filename": "logs/Email.log",
        "Level": "debug",
        "MaxLogSize": "5M",
        "MaxLogNumber": 10
    },
    "Attachments": {
        "Path": "/home/mendawai-email/attachment/"
    }
}